Predict race/ethnicity based on census data
…
# Check: probabilities, if valid, should add up to 1
ismb_pubmed %>%
  filter(Race == 'White' | Race == 'Asian' | Race == 'All others') %>% 
  group_by(type, year, publication_date, Race) %>%
  summarise(mean_prob = mean(Probabilities, na.rm = T)) %>%
  summarise(all_prob = sum(mean_prob))

## # A tibble: 4,386 x 4
## # Groups:   type, year [36]
##    type  year       publication_date all_prob
##    <chr> <date>     <date>              <dbl>
##  1 ISMB  2002-01-01 2002-01-01          1    
##  2 ISMB  2003-01-01 2003-01-01          1    
##  3 ISMB  2004-01-01 2004-01-01          1    
##  4 ISMB  2005-01-01 2005-01-01          1    
##  5 ISMB  2006-01-01 2006-01-01          1    
##  6 ISMB  2007-01-01 2007-01-01          1    
##  7 ISMB  2008-01-01 2008-01-01          1.000
##  8 ISMB  2009-01-01 2009-01-01          1    
##  9 ISMB  2010-01-01 2010-01-01          1    
## 10 ISMB  2011-01-01 2011-01-01          1    
## #  with 4,376 more rows
