Visualize gender predictions based on census data
…
sum(is.na(pubmed_df$probability_male))

## [1] 2835

2 iscb forenames not genderized. 2835 pubmed forenames not genderized. These mostly include initials only, hyphenated names and perhaps names with accent marks.

pubmed_df %>% filter(!is.na(probability_male)) %>% count(journal, year)

## # A tibble: 51 x 3
##    journal        year           n
##    <chr>          <date>     <int>
##  1 Bioinformatics 2002-01-01   279
##  2 Bioinformatics 2003-01-01   427
##  3 Bioinformatics 2004-01-01   751
##  4 Bioinformatics 2005-01-01   616
##  5 Bioinformatics 2006-01-01   557
##  6 Bioinformatics 2007-01-01   636
##  7 Bioinformatics 2008-01-01   613
##  8 Bioinformatics 2009-01-01   663
##  9 Bioinformatics 2010-01-01   673
## 10 Bioinformatics 2011-01-01   676
## #  with 41 more rows
…
