Visualize gender predictions based on census data
…
sum(is.na(pubmed_df$probability_male))

## [1] 2830

2 iscb forenames not genderized. 2835 pubmed forenames not genderized. These mostly include initials only, hyphenated names and perhaps names with accent marks.

pubmed_df %>% filter(!is.na(probability_male)) %>% count(journal, year)

## # A tibble: 51 x 3
##    journal        year           n
##    <chr>          <date>     <int>
##  1 Bioinformatics 2002-01-01   268
##  2 Bioinformatics 2003-01-01   411
##  3 Bioinformatics 2004-01-01   724
##  4 Bioinformatics 2005-01-01   593
##  5 Bioinformatics 2006-01-01   538
##  6 Bioinformatics 2007-01-01   608
##  7 Bioinformatics 2008-01-01   597
##  8 Bioinformatics 2009-01-01   637
##  9 Bioinformatics 2010-01-01   656
## 10 Bioinformatics 2011-01-01   654
## #  with 41 more rows
…
