Predict race/ethnicity based on census data
…
Here, each circle is a name mention. The vertical intervals are confidence intervals of the mean probability of selecting a race/ethnicity category in the US census (triangle).

# Check: probabilities, if valid, should add up to 1
iscb_pubmed %>%
  filter(Race == 'White' | Race == 'Asian' | Race == 'All others') %>% 
  group_by(type, year, publication_date, Race) %>%
  summarise(mean_prob = mean(probabilities, na.rm = T)) %>%
  summarise(all_prob = sum(mean_prob))

## # A tibble: 4,506 x 4
## # Groups:   type, year [47]
##    type                     year       publication_date all_prob
##    <chr>                    <date>     <date>              <dbl>
##  1 Keynote speakers/Fellows 1997-01-01 1997-01-01              1
##  2 Keynote speakers/Fellows 1998-01-01 1998-01-01              1
##  3 Keynote speakers/Fellows 1999-01-01 1999-01-01              1
##  4 Keynote speakers/Fellows 2000-01-01 2000-01-01              1
##  5 Keynote speakers/Fellows 2001-01-01 2001-01-01              1
##  6 Keynote speakers/Fellows 2002-01-01 2002-01-01              1
##  7 Keynote speakers/Fellows 2003-01-01 2003-01-01              1
##  8 Keynote speakers/Fellows 2004-01-01 2004-01-01              1
##  9 Keynote speakers/Fellows 2005-01-01 2005-01-01              1
## 10 Keynote speakers/Fellows 2006-01-01 2006-01-01              1
## #  with 4,496 more rows
…
