Visualize gender predictions based on census data
…
# unique names in iscb dataset:
iscb_gender_df %>% 
  distinct(fore_name, last_name) %>% 
  nrow()

## [1] 290

set.seed(0)
iscb_gender_df %>% 
  count(fore_name, last_name) %>% 
  filter(n > 1)

## # A tibble: 77 x 3
##    fore_name   last_name      n
##    <chr>       <chr>      <int>
##  1 Alfonso     Valencia       4
##  2 Amos        Bairoch        3
##  3 Andrej      Sali           2
##  4 Anna        Tramontano     2
##  5 Anne-Claude Gavin          2
##  6 Aviv        Regev          4
##  7 Barry       Honig          2
##  8 Bonnie      Berger         4
##  9 Carlos      Bustamante     3
## 10 Charles     DeLisi         2
## #  with 67 more rows
…
