Visualize nationality predictions
…
Missing data

iscb_nat_df %>% filter(is.na(African)) 

## # A tibble: 0 x 18
## #  with 18 variables: year <date>, full_name.x <chr>, fore_name <chr>,
## #   last_name <chr>, conference <chr>, source <chr>,
## #   publication_date <date>, full_name.y <chr>, African <dbl>,
## #   CelticEnglish <dbl>, EastAsian <dbl>, European <dbl>, Hispanic <dbl>,
## #   Israel <dbl>, Muslim <dbl>, SouthAsian <dbl>, fore_name_simple <chr>,
## #   last_name_simple <chr>

pubmed_nat_pmids %>% filter(is.na(African))

## # A tibble: 1,506 x 29
##      pmid pmcid.x position fore_name last_name corresponding
##     <dbl> <chr>      <dbl> <chr>     <chr>             <dbl>
##  1 1.28e7 PMC161        1 HJ        Purohit               1
##  2 1.51e7 PMC394        6 N         Srinivas             1
##  3 1.52e7 PMC446        1 DA        Pollard               1
##  4 1.52e7 PMC446        2 CM        Bergman               1
##  5 1.54e7 PMC520        3 J-J       Daudin                1
##  6 1.58e7 PMC127        2 RW        Doerge                1
##  7 1.58e7 PMC127        6 J         Snoddy                1
##  8 1.58e7 PMC109        1 AM        Cohen                 1
##  9 1.59e7 PMC113        4 KV        Venkatesh             1
## 10 1.59e7 PMC109        6 M         Caselle               1
## #  with 1,496 more rows, and 23 more variables: reverse_position <dbl>,
## #   source <chr>, use_last <dbl>, n_corresponding <dbl>,
## #   fore_name_simple.x <chr>, last_name_simple.x <chr>, pmcid.y <chr>,
## #   doi <chr>, journal <chr>, publication_date <date>, title <chr>,
## #   year <date>, full_name <chr>, African <dbl>, CelticEnglish <dbl>,
## #   EastAsian <dbl>, European <dbl>, Hispanic <dbl>, Israel <dbl>,
## #   Muslim <dbl>, SouthAsian <dbl>, fore_name_simple.y <chr>,
## #   last_name_simple.y <chr>
…
pubmed_nat_df %>% 
  filter(year == '2002-01-01', !is.na(African))

## # A tibble: 315 x 12
##      pmid journal publication_date year       African CelticEnglish
##     <dbl> <chr>   <date>           <date>       <dbl>         <dbl>
##  1 1.18e7 BMC Bi 2002-01-10       2002-01-01 1.19e-6      0.000464
##  2 1.18e7 BMC Bi 2002-01-22       2002-01-01 1.61e-2      0.00230 
##  3 1.18e7 Bioinf 2002-01-01       2002-01-01 9.98e-4      0.957   
##  4 1.18e7 Bioinf 2002-01-01       2002-01-01 6.50e-4      0.0999  
##  5 1.18e7 Bioinf 2002-01-01       2002-01-01 3.38e-1      0.136   
##  6 1.18e7 Bioinf 2002-01-01       2002-01-01 1.24e-5      0.00475 
##  7 1.18e7 Bioinf 2002-01-01       2002-01-01 1.87e-3      0.647   
##  8 1.18e7 Bioinf 2002-01-01       2002-01-01 2.26e-3      0.941   
##  9 1.18e7 Bioinf 2002-01-01       2002-01-01 1.75e-3      0.0167  
## 10 1.18e7 Bioinf 2002-01-01       2002-01-01 4.23e-4      0.0316  
## #  with 305 more rows, and 6 more variables: EastAsian <dbl>,
## #   European <dbl>, Hispanic <dbl>, Israel <dbl>, Muslim <dbl>,
## #   SouthAsian <dbl>
…
