Name origin analysis in the US
…
Missing data

iscb_nat_df %>% filter(is.na(African))

## # A tibble: 0 x 22
## #  with 22 variables: year <date>, full_name.x <chr>, fore_name <chr>,
## #   last_name <chr>, conference <chr>, source <chr>, affiliations <chr>,
## #   afflcountries <chr>, publication_date <date>, full_name.y <chr>,
## #   African <dbl>, CelticEnglish <dbl>, EastAsian <dbl>, European <dbl>,
## #   Greek <dbl>, Hispanic <dbl>, Jewish <dbl>, Muslim <dbl>, Nordic <dbl>,
## #   SouthAsian <dbl>, fore_name_simple <chr>, last_name_simple <chr>

pubmed_nat_pmids %>% filter(is.na(African))

## # A tibble: 136 x 32
##      pmid pmcid.x position fore_name last_name corresponding reverse_position
##     <dbl> <chr>      <dbl> <chr>     <chr>             <dbl>            <dbl>
##  1 1.52e7 PMC446        1 DA        Pollard               1                5
##  2 1.52e7 PMC446        2 CM        Bergman               1                4
##  3 1.58e7 PMC127        2 RW        Doerge                1                1
##  4 1.58e7 PMC127        6 J         Snoddy                1                1
##  5 1.58e7 PMC109        1 AM        Cohen                 1                4
##  6 1.65e7 PMC139        1 GW        Patton                1                8
##  7 1.65e7 PMC143        1 JR        Semeiks               1                4
##  8 1.65e7 PMC143        2 A         Rizki                 1                3
##  9 1.65e7 PMC143        3 MJ        Bissell               1                2
## 10 1.65e7 PMC143        4 IS        Mian                  1                1
## #  with 126 more rows, and 25 more variables: countries <chr>, source <chr>,
## #   use_last <dbl>, n_corresponding <dbl>, fore_name_simple.x <chr>,
## #   last_name_simple.x <chr>, pmcid.y <chr>, doi <chr>, journal <chr>,
## #   publication_date <date>, title <chr>, year <date>, full_name <chr>,
## #   African <dbl>, CelticEnglish <dbl>, EastAsian <dbl>, European <dbl>,
## #   Greek <dbl>, Hispanic <dbl>, Jewish <dbl>, Muslim <dbl>, Nordic <dbl>,
## #   SouthAsian <dbl>, fore_name_simple.y <chr>, last_name_simple.y <chr>
…
