Affiliation analysis
…
region_levels_let <- toupper(letters[1:8])

Missing data

# iscb_aff_df %>% filter(is.na(countries))
pubmed_aff_pmids %>% filter(is.na(countries))

## # A tibble: 7,216 x 19
##      pmid pmcid.x position fore_name last_name corresponding
##     <dbl> <chr>      <dbl> <chr>     <chr>             <dbl>
##  1 1.46e7 PMC280        1 Michael J Wise                  1
##  2 1.53e7 PMC487        2 Carl      Herrmann              1
##  3 1.61e7 PMC118        1 Michael   Gribskov              0
##  4 1.61e7 PMC118        1 Sean R    Eddy                  0
##  5 1.61e7 PMC118        1 Mercedes  Pascual               0
##  6 1.61e7 PMC118        1 Kevin     Chen                  1
##  7 1.61e7 PMC118        2 Lior      Pachter               1
##  8 1.62e7 PMC119        1 Philip    Bourne                1
##  9 1.62e7 PMC123        1 Olaf      Sporns                1
## 10 1.63e7 PMC128        1 Shoba     Ranganat             0
## #  with 7,206 more rows, and 13 more variables: reverse_position <dbl>,
## #   countries <chr>, source <chr>, use_last <dbl>, n_corresponding <dbl>,
## #   fore_name_simple <chr>, last_name_simple <chr>, pmcid.y <chr>,
## #   doi <chr>, journal <chr>, publication_date <date>, title <chr>,
## #   year <date>
…
