Name origin analysis in the US
…
## # A tibble: 3 x 20
##   year       full_name.x fore_name last_name conference source affiliations
##   <date>     <chr>       <chr>     <chr>     <chr>      <chr>  <chr>       
## 1 1996-01-01 David Wein David     Weininger PSB        https DAYLIGHT Ch
## 2 1997-01-01 Irwin Kuntz Irwin     Kuntz     PSB        http: University 
## 3 1998-01-01 Gregory Pe Gregory   Petsko    PSB        https Brandeis Un
## #  with 13 more variables: afflcountries <chr>, publication_date <date>,
## #   full_name.y <chr>, African <dbl>, CelticEnglish <dbl>,
## #   EastAsian <dbl>, European <dbl>, Hispanic <dbl>, Israel <dbl>,
## #   Muslim <dbl>, SouthAsian <dbl>, fore_name_simple <chr>,
## #   last_name_simple <chr>

pubmed_nat_pmids %>% filter(is.na(African))

## # A tibble: 136 x 30
##      pmid pmcid.x position fore_name last_name corresponding
##     <dbl> <chr>      <dbl> <chr>     <chr>             <dbl>
##  1 1.52e7 PMC446        1 DA        Pollard               1
##  2 1.52e7 PMC446        2 CM        Bergman               1
##  3 1.58e7 PMC127        2 RW        Doerge                1
##  4 1.58e7 PMC127        6 J         Snoddy                1
##  5 1.58e7 PMC109        1 AM        Cohen                 1
##  6 1.65e7 PMC139        1 GW        Patton                1
##  7 1.65e7 PMC143        1 JR        Semeiks               1
##  8 1.65e7 PMC143        2 A         Rizki                 1
##  9 1.65e7 PMC143        3 MJ        Bissell               1
## 10 1.65e7 PMC143        4 IS        Mian                  1
## #  with 126 more rows, and 24 more variables: reverse_position <dbl>,
## #   countries <chr>, source <chr>, use_last <dbl>, n_corresponding <dbl>,
## #   fore_name_simple.x <chr>, last_name_simple.x <chr>, pmcid.y <chr>,
## #   doi <chr>, journal <chr>, publication_date <date>, title <chr>,
## #   year <date>, full_name <chr>, African <dbl>, CelticEnglish <dbl>,
## #   EastAsian <dbl>, European <dbl>, Hispanic <dbl>, Israel <dbl>,
## #   Muslim <dbl>, SouthAsian <dbl>, fore_name_simple.y <chr>,
## #   last_name_simple.y <chr>
…
pubmed_nat_df %>%
  filter(year == '2002-01-01', !is.na(African))

## # A tibble: 31 x 12
##      pmid journal publication_date year       African CelticEnglish
##     <dbl> <chr>   <date>           <date>       <dbl>         <dbl>
##  1 1.18e7 BMC Bi 2002-01-10       2002-01-01 1.19e-6      0.000464
##  2 1.18e7 BMC Bi 2002-01-22       2002-01-01 1.61e-2      0.00230 
##  3 1.18e7 Bioinf 2002-02-01       2002-01-01 8.40e-4      0.987   
##  4 1.19e7 BMC Bi 2002-01-17       2002-01-01 2.06e-4      0.992   
##  5 1.19e7 BMC Bi 2002-03-06       2002-01-01 3.27e-2      0.396   
##  6 1.19e7 BMC Bi 2002-02-05       2002-01-01 4.07e-4      0.0596  
##  7 1.19e7 Bioinf 2002-03-01       2002-01-01 7.07e-4      0.629   
##  8 1.19e7 Bioinf 2002-03-01       2002-01-01 2.27e-4      0.950   
##  9 1.20e7 BMC Bi 2002-04-24       2002-01-01 1.28e-2      0.922   
## 10 1.20e7 Bioinf 2002-04-01       2002-01-01 2.41e-6      0.0263  
## #  with 21 more rows, and 6 more variables: EastAsian <dbl>,
## #   European <dbl>, Hispanic <dbl>, Israel <dbl>, Muslim <dbl>,
## #   SouthAsian <dbl>
…
